[gd_scene load_steps=8 format=3 uid="uid://c8h5sp8eykh65"]

[ext_resource type="Script" path="res://scenes/ship/parts/Door.gd" id="1_fhxyh"]

[sub_resource type="StandardMaterial3D" id="StandardMaterial3D_yqmfh"]

[sub_resource type="ArrayMesh" id="ArrayMesh_m8yjl"]
resource_name = "Door_Plane_001"
_surfaces = [{
"aabb": AABB(-1.19764, 5.81296e-06, -5.45627, 2.39528, 3.57685, 0.0512123),
"attribute_data": PackedByteArray(0, 0, 0, 0, 0, 0, 128, 63, 232, 66, 57, 63, 0, 0, 0, 0, 0, 0, 0, 0, 0, 0, 128, 63, 0, 0, 0, 0, 0, 0, 128, 63, 0, 0, 0, 0, 0, 0, 128, 63, 232, 66, 57, 63, 0, 0, 0, 0, 0, 0, 0, 0, 0, 0, 128, 63, 232, 66, 57, 63, 0, 0, 0, 0, 232, 66, 57, 63, 0, 0, 0, 0, 0, 0, 0, 0, 0, 0, 128, 63, 0, 0, 0, 0, 0, 0, 128, 63, 0, 0, 0, 0, 0, 0, 128, 63, 0, 0, 0, 0, 0, 0, 128, 63, 0, 0, 0, 0, 0, 0, 128, 63, 232, 66, 57, 63, 0, 0, 0, 0, 232, 66, 57, 63, 0, 0, 0, 0, 232, 66, 57, 63, 0, 0, 0, 0, 0, 0, 0, 0, 0, 0, 128, 63, 0, 0, 0, 0, 0, 0, 128, 63, 0, 0, 0, 0, 0, 0, 128, 63, 0, 0, 0, 0, 0, 0, 128, 63, 232, 66, 57, 63, 0, 0, 0, 0, 0, 0, 0, 0, 0, 0, 128, 63, 0, 0, 0, 0, 0, 0, 128, 63, 232, 66, 57, 63, 0, 0, 0, 0, 232, 66, 57, 63, 0, 0, 0, 0, 0, 0, 0, 0, 0, 0, 128, 63, 0, 0, 0, 0, 0, 0, 128, 63, 232, 66, 57, 63, 0, 0, 0, 0, 232, 66, 57, 63, 0, 0, 0, 0, 232, 66, 57, 63, 0, 0, 0, 0, 0, 0, 0, 0, 0, 0, 128, 63, 0, 0, 0, 0, 0, 0, 128, 63, 232, 66, 57, 63, 0, 0, 0, 0, 0, 0, 0, 0, 0, 0, 128, 63, 0, 0, 0, 0, 0, 0, 128, 63, 0, 0, 0, 0, 0, 0, 128, 63, 0, 0, 0, 0, 0, 0, 128, 63, 0, 0, 0, 0, 0, 0, 128, 63, 0, 0, 0, 0, 0, 0, 128, 63),
"bone_aabbs": [AABB(0, 5.81296e-06, -5.45627, 1.19765, 3.57685, 0.0512123), AABB(-1.19764, 5.81296e-06, -5.45627, 1.19765, 3.57685, 0.0512123)],
"format": 34359745559,
"index_count": 60,
"index_data": PackedByteArray(8, 0, 33, 0, 1, 0, 8, 0, 30, 0, 33, 0, 2, 0, 35, 0, 9, 0, 2, 0, 38, 0, 35, 0, 10, 0, 29, 0, 7, 0, 10, 0, 36, 0, 29, 0, 0, 0, 39, 0, 3, 0, 0, 0, 32, 0, 39, 0, 25, 0, 5, 0, 15, 0, 25, 0, 21, 0, 5, 0, 22, 0, 17, 0, 11, 0, 22, 0, 26, 0, 17, 0, 27, 0, 14, 0, 18, 0, 27, 0, 24, 0, 14, 0, 20, 0, 12, 0, 4, 0, 20, 0, 23, 0, 12, 0, 34, 0, 31, 0, 28, 0, 34, 0, 37, 0, 31, 0, 19, 0, 6, 0, 13, 0, 19, 0, 16, 0, 6, 0),
"material": SubResource("StandardMaterial3D_yqmfh"),
"primitive": 3,
"skin_data": PackedByteArray(0, 0, 0, 0, 0, 0, 0, 0, 255, 255, 0, 0, 0, 0, 0, 0, 0, 0, 0, 0, 0, 0, 0, 0, 255, 255, 0, 0, 0, 0, 0, 0, 0, 0, 0, 0, 0, 0, 0, 0, 255, 255, 0, 0, 0, 0, 0, 0, 0, 0, 0, 0, 0, 0, 0, 0, 255, 255, 0, 0, 0, 0, 0, 0, 1, 0, 0, 0, 0, 0, 0, 0, 255, 255, 0, 0, 0, 0, 0, 0, 1, 0, 0, 0, 0, 0, 0, 0, 255, 255, 0, 0, 0, 0, 0, 0, 1, 0, 0, 0, 0, 0, 0, 0, 255, 255, 0, 0, 0, 0, 0, 0, 0, 0, 0, 0, 0, 0, 0, 0, 255, 255, 0, 0, 0, 0, 0, 0, 0, 0, 0, 0, 0, 0, 0, 0, 255, 255, 0, 0, 0, 0, 0, 0, 0, 0, 0, 0, 0, 0, 0, 0, 255, 255, 0, 0, 0, 0, 0, 0, 0, 0, 0, 0, 0, 0, 0, 0, 255, 255, 0, 0, 0, 0, 0, 0, 1, 0, 0, 0, 0, 0, 0, 0, 255, 255, 0, 0, 0, 0, 0, 0, 1, 0, 0, 0, 0, 0, 0, 0, 255, 255, 0, 0, 0, 0, 0, 0, 1, 0, 0, 0, 0, 0, 0, 0, 255, 255, 0, 0, 0, 0, 0, 0, 1, 0, 0, 0, 0, 0, 0, 0, 255, 255, 0, 0, 0, 0, 0, 0, 1, 0, 0, 0, 0, 0, 0, 0, 255, 255, 0, 0, 0, 0, 0, 0, 1, 0, 0, 0, 0, 0, 0, 0, 255, 255, 0, 0, 0, 0, 0, 0, 1, 0, 0, 0, 0, 0, 0, 0, 255, 255, 0, 0, 0, 0, 0, 0, 1, 0, 0, 0, 0, 0, 0, 0, 255, 255, 0, 0, 0, 0, 0, 0, 1, 0, 0, 0, 0, 0, 0, 0, 255, 255, 0, 0, 0, 0, 0, 0, 1, 0, 0, 0, 0, 0, 0, 0, 255, 255, 0, 0, 0, 0, 0, 0, 1, 0, 0, 0, 0, 0, 0, 0, 255, 255, 0, 0, 0, 0, 0, 0, 1, 0, 0, 0, 0, 0, 0, 0, 255, 255, 0, 0, 0, 0, 0, 0, 1, 0, 0, 0, 0, 0, 0, 0, 255, 255, 0, 0, 0, 0, 0, 0, 1, 0, 0, 0, 0, 0, 0, 0, 255, 255, 0, 0, 0, 0, 0, 0, 1, 0, 0, 0, 0, 0, 0, 0, 255, 255, 0, 0, 0, 0, 0, 0, 1, 0, 0, 0, 0, 0, 0, 0, 255, 255, 0, 0, 0, 0, 0, 0, 1, 0, 0, 0, 0, 0, 0, 0, 255, 255, 0, 0, 0, 0, 0, 0, 0, 0, 0, 0, 0, 0, 0, 0, 255, 255, 0, 0, 0, 0, 0, 0, 0, 0, 0, 0, 0, 0, 0, 0, 255, 255, 0, 0, 0, 0, 0, 0, 0, 0, 0, 0, 0, 0, 0, 0, 255, 255, 0, 0, 0, 0, 0, 0, 0, 0, 0, 0, 0, 0, 0, 0, 255, 255, 0, 0, 0, 0, 0, 0, 0, 0, 0, 0, 0, 0, 0, 0, 255, 255, 0, 0, 0, 0, 0, 0, 0, 0, 0, 0, 0, 0, 0, 0, 255, 255, 0, 0, 0, 0, 0, 0, 0, 0, 0, 0, 0, 0, 0, 0, 255, 255, 0, 0, 0, 0, 0, 0, 0, 0, 0, 0, 0, 0, 0, 0, 255, 255, 0, 0, 0, 0, 0, 0, 0, 0, 0, 0, 0, 0, 0, 0, 255, 255, 0, 0, 0, 0, 0, 0, 0, 0, 0, 0, 0, 0, 0, 0, 255, 255, 0, 0, 0, 0, 0, 0, 0, 0, 0, 0, 0, 0, 0, 0, 255, 255, 0, 0, 0, 0, 0, 0, 0, 0, 0, 0, 0, 0, 0, 0, 255, 255, 0, 0, 0, 0, 0, 0),
"uv_scale": Vector4(0, 0, 0, 0),
"vertex_count": 40,
"vertex_data": PackedByteArray(29, 76, 153, 63, 255, 234, 100, 64, 189, 153, 174, 192, 29, 76, 153, 63, 255, 234, 100, 64, 189, 153, 174, 192, 29, 76, 153, 63, 246, 12, 195, 54, 189, 153, 174, 192, 29, 76, 153, 63, 246, 12, 195, 54, 189, 153, 174, 192, 0, 0, 0, 0, 255, 234, 100, 64, 189, 153, 174, 192, 0, 0, 0, 0, 255, 234, 100, 64, 189, 153, 174, 192, 0, 0, 0, 0, 255, 234, 100, 64, 189, 153, 174, 192, 29, 76, 153, 63, 253, 234, 100, 64, 53, 246, 172, 192, 29, 76, 153, 63, 253, 234, 100, 64, 53, 246, 172, 192, 29, 76, 153, 63, 246, 12, 195, 54, 53, 246, 172, 192, 29, 76, 153, 63, 246, 12, 195, 54, 53, 246, 172, 192, 0, 0, 0, 0, 246, 12, 195, 54, 189, 153, 174, 192, 0, 0, 0, 0, 246, 12, 195, 54, 189, 153, 174, 192, 0, 0, 0, 0, 246, 12, 195, 54, 189, 153, 174, 192, 0, 0, 0, 0, 253, 234, 100, 64, 53, 246, 172, 192, 0, 0, 0, 0, 253, 234, 100, 64, 53, 246, 172, 192, 0, 0, 0, 0, 253, 234, 100, 64, 53, 246, 172, 192, 0, 0, 0, 0, 246, 12, 195, 54, 53, 246, 172, 192, 0, 0, 0, 0, 246, 12, 195, 54, 53, 246, 172, 192, 0, 0, 0, 0, 246, 12, 195, 54, 53, 246, 172, 192, 29, 76, 153, 191, 255, 234, 100, 64, 189, 153, 174, 192, 29, 76, 153, 191, 255, 234, 100, 64, 189, 153, 174, 192, 29, 76, 153, 191, 246, 12, 195, 54, 189, 153, 174, 192, 29, 76, 153, 191, 246, 12, 195, 54, 189, 153, 174, 192, 29, 76, 153, 191, 253, 234, 100, 64, 53, 246, 172, 192, 29, 76, 153, 191, 253, 234, 100, 64, 53, 246, 172, 192, 29, 76, 153, 191, 246, 12, 195, 54, 53, 246, 172, 192, 29, 76, 153, 191, 246, 12, 195, 54, 53, 246, 172, 192, 0, 0, 0, 0, 253, 234, 100, 64, 53, 246, 172, 192, 0, 0, 0, 0, 253, 234, 100, 64, 53, 246, 172, 192, 0, 0, 0, 0, 253, 234, 100, 64, 53, 246, 172, 192, 0, 0, 0, 0, 255, 234, 100, 64, 189, 153, 174, 192, 0, 0, 0, 0, 255, 234, 100, 64, 189, 153, 174, 192, 0, 0, 0, 0, 255, 234, 100, 64, 189, 153, 174, 192, 0, 0, 0, 0, 246, 12, 195, 54, 53, 246, 172, 192, 0, 0, 0, 0, 246, 12, 195, 54, 53, 246, 172, 192, 0, 0, 0, 0, 246, 12, 195, 54, 53, 246, 172, 192, 0, 0, 0, 0, 246, 12, 195, 54, 189, 153, 174, 192, 0, 0, 0, 0, 246, 12, 195, 54, 189, 153, 174, 192, 0, 0, 0, 0, 246, 12, 195, 54, 189, 153, 174, 192, 255, 255, 255, 255, 255, 255, 255, 191, 255, 127, 254, 255, 255, 255, 255, 63, 255, 127, 0, 0, 255, 255, 255, 191, 255, 255, 255, 255, 255, 255, 255, 191, 255, 255, 255, 255, 255, 255, 255, 191, 255, 127, 254, 255, 255, 255, 255, 63, 255, 255, 255, 127, 255, 255, 255, 191, 255, 127, 255, 127, 255, 255, 255, 63, 255, 127, 254, 255, 255, 255, 255, 63, 255, 127, 0, 0, 255, 255, 255, 191, 255, 127, 255, 127, 255, 255, 255, 63, 255, 127, 0, 0, 255, 255, 255, 191, 255, 255, 255, 255, 255, 255, 255, 191, 255, 255, 255, 127, 255, 255, 255, 191, 255, 127, 255, 127, 255, 255, 255, 63, 255, 127, 254, 255, 255, 255, 255, 63, 255, 255, 255, 127, 255, 255, 255, 191, 255, 127, 0, 0, 255, 255, 255, 191, 255, 127, 255, 127, 255, 255, 255, 63, 255, 255, 255, 127, 255, 255, 255, 191, 255, 255, 255, 255, 255, 255, 255, 191, 255, 127, 254, 255, 255, 255, 255, 63, 255, 127, 0, 0, 255, 255, 255, 191, 255, 255, 255, 255, 255, 255, 255, 191, 255, 127, 255, 127, 255, 255, 255, 63, 255, 127, 254, 255, 255, 255, 255, 63, 255, 127, 0, 0, 255, 255, 255, 191, 255, 127, 255, 127, 255, 255, 255, 63, 0, 0, 255, 127, 255, 255, 255, 191, 255, 127, 255, 127, 255, 255, 255, 63, 255, 127, 254, 255, 255, 255, 255, 63, 0, 0, 255, 127, 255, 255, 255, 191, 255, 255, 255, 255, 255, 255, 255, 191, 255, 127, 254, 255, 255, 255, 255, 63, 0, 0, 255, 127, 255, 255, 255, 191, 255, 127, 0, 0, 255, 255, 255, 191, 255, 127, 255, 127, 255, 255, 255, 63, 0, 0, 255, 127, 255, 255, 255, 191, 255, 127, 0, 0, 255, 255, 255, 191, 255, 255, 255, 255, 255, 255, 255, 191)
}]
blend_shape_mode = 0

[sub_resource type="Skin" id="Skin_qm5he"]
resource_name = "Skin"
bind_count = 2
bind/0/name = &"left"
bind/0/bone = -1
bind/0/pose = Transform3D(1, 4.64916e-06, -4.64916e-06, -4.64916e-06, 1, 2.16147e-11, 4.64916e-06, 2.16147e-11, 1, -1.19768, -3.57684, 5.45626)
bind/1/name = &"right"
bind/1/bone = -1
bind/1/pose = Transform3D(1, 0, 0, 0, 1, 0, 0, 0, 1, 1.19764, -3.57684, 5.49778)

[sub_resource type="Animation" id="Animation_h6ee2"]
resource_name = "close"
length = 0.416667
step = 0.01
tracks/0/type = "scale_3d"
tracks/0/imported = true
tracks/0/enabled = true
tracks/0/path = NodePath("Door_001/Skeleton3D:left")
tracks/0/interp = 1
tracks/0/loop_wrap = true
tracks/0/keys = PackedFloat32Array(0, 1, 0.00999999, 1, 1, 0.416667, 1, 1, 1, 1)
tracks/1/type = "scale_3d"
tracks/1/imported = true
tracks/1/enabled = true
tracks/1/path = NodePath("Door_001/Skeleton3D:right")
tracks/1/interp = 1
tracks/1/loop_wrap = true
tracks/1/keys = PackedFloat32Array(0, 1, 0.00999999, 1, 1, 0.416667, 1, 1, 1, 1)

[sub_resource type="Animation" id="Animation_dih8w"]
resource_name = "open"
length = 0.416667
tracks/0/type = "scale_3d"
tracks/0/imported = true
tracks/0/enabled = true
tracks/0/path = NodePath("Door_001/Skeleton3D:left")
tracks/0/interp = 1
tracks/0/loop_wrap = true
tracks/0/keys = PackedFloat32Array(0, 1, 1, 1, 1, 0.4, 1, 0.01, 1, 1)
tracks/1/type = "scale_3d"
tracks/1/imported = true
tracks/1/enabled = true
tracks/1/path = NodePath("Door_001/Skeleton3D:right")
tracks/1/interp = 1
tracks/1/loop_wrap = true
tracks/1/keys = PackedFloat32Array(0, 1, 1, 1, 1, 0.4, 1, 0.01, 1, 1)

[sub_resource type="AnimationLibrary" id="AnimationLibrary_1ifsu"]
_data = {
"close": SubResource("Animation_h6ee2"),
"open": SubResource("Animation_dih8w")
}

[node name="Door" type="Node3D" node_paths=PackedStringArray("door_animation_player")]
script = ExtResource("1_fhxyh")
door_animation_player = NodePath("Door2/AnimationPlayer")

[node name="Door2" type="Node3D" parent="."]

[node name="Door_001" type="Node3D" parent="Door2"]
transform = Transform3D(1, 0, 0, 0, 1, 0, 0, 0, 1, 0, 3.57684, -5.49778)

[node name="Skeleton3D" type="Skeleton3D" parent="Door2/Door_001"]
bones/0/name = "left"
bones/0/parent = -1
bones/0/rest = Transform3D(1, -4.64916e-06, 4.64916e-06, 4.64916e-06, 1, 1.08074e-11, -4.64916e-06, 1.08074e-11, 1, 1.19764, 7.15256e-07, 0.041513)
bones/0/enabled = true
bones/0/position = Vector3(1.19764, 7.15256e-07, 0.041513)
bones/0/rotation = Quaternion(0, 2.32458e-06, 2.32458e-06, 1)
bones/0/scale = Vector3(0.00999999, 1, 1)
bones/1/name = "right"
bones/1/parent = -1
bones/1/rest = Transform3D(1, 0, 0, 0, 1, 0, 0, 0, 1, -1.19764, 0, 0)
bones/1/enabled = true
bones/1/position = Vector3(-1.19764, 0, 0)
bones/1/rotation = Quaternion(0, 0, 0, 1)
bones/1/scale = Vector3(0.00999999, 1, 1)

[node name="Door" type="MeshInstance3D" parent="Door2/Door_001/Skeleton3D"]
mesh = SubResource("ArrayMesh_m8yjl")
skin = SubResource("Skin_qm5he")

[node name="AnimationPlayer" type="AnimationPlayer" parent="Door2"]
libraries = {
"": SubResource("AnimationLibrary_1ifsu")
}
